<?xml version="1.0" encoding="UTF-8"?>
<svg id="Livello_1" data-name="Livello 1" xmlns="http://www.w3.org/2000/svg" viewBox="0 0 609 200">
  <defs>
    <style>
      .cls-1 {
        fill: #000333;
      }
    </style>
  </defs>
  <path class="cls-1" d="m65.25,92.05c-2.02-2.02-3.03-5.01-3.03-8.97,0-7.92,4-11.88,12-11.88s12,3.96,12,11.88c0,3.96-1.01,6.95-3.03,8.97-2.02,2.02-5.01,3.03-8.97,3.03s-6.95-1.01-8.97-3.03Zm0,42.24c-2.02-2.02-3.03-5.01-3.03-8.97,0-7.92,4-11.88,12-11.88s12,3.96,12,11.88c0,3.96-1.01,6.95-3.03,8.97-2.02,2.02-5.01,3.03-8.97,3.03s-6.95-1.01-8.97-3.03Z"/>
  <path class="cls-1" d="m151.56,116.41c-2.36-1.06-5.02-2.65-7.98-4.77-2.52-1.76-4.65-3.06-6.39-3.9-1.74-.84-3.25-1.26-4.53-1.26-2.12,0-4.04.63-5.76,1.89s-3.68,3.51-5.88,6.75l-7.56-12.36c3.2-4.16,6.39-7.18,9.57-9.06,3.18-1.88,6.75-2.82,10.71-2.82,1.76,0,3.45.26,5.07.78,1.62.52,3.09,1.17,4.41,1.95,1.32.78,3,1.85,5.04,3.21l1.32.9c1.4.84,2.5,1.52,3.3,2.04,1.84,1.12,3.18,1.86,4.02,2.22.84.36,1.84.54,3,.54,1.32,0,2.51-.34,3.57-1.02,1.06-.68,2.55-1.88,4.47-3.6,1.92-1.72,3.32-2.94,4.2-3.66l6.6,11.52c-2.8,3.88-5.96,6.89-9.48,9.03-3.52,2.14-7.12,3.21-10.8,3.21-2.24,0-4.54-.53-6.9-1.59Z"/>
  <path class="cls-1" d="m261.18,50.32h19.44l9.42,35.4,9.54-35.4h19.44v87h-14.64v-60.18l-.54,1.14-.12.66-10.02,35.04h-7.2l-9.9-35.04-.18-.66-.72-1.14v60.18h-14.52V50.32Z"/>
  <path class="cls-1" d="m334.26,50.32h54.6v13.2h-39v22.2h37.08v13.2h-37.08v25.32h40.68v13.08h-56.28V50.32Z"/>
  <path class="cls-1" d="m416.64,115.37c-3-1.94-5.31-4.74-6.93-8.4s-2.43-8.05-2.43-13.17v-42.48h14.64v40.68c0,3.2.27,5.88.81,8.04s1.59,3.86,3.15,5.1c1.56,1.24,3.8,1.86,6.72,1.86,4.44,0,7.75-1.58,9.93-4.74,2.18-3.16,3.27-7.22,3.27-12.18v-38.76h14.64v51.72c0,2.52.08,5.54.24,9.06.08,1.2.16,2.94.24,5.22h-14.52l-.48-7.08c-2.28,3.08-4.8,5.19-7.56,6.33-2.76,1.14-6.44,1.71-11.04,1.71-4.12,0-7.68-.97-10.68-2.91Z"/>
  <path class="cls-1" d="m477.66,54.56l-.18-3.24h13.92l.84,9.48c2.16-3.76,4.65-6.48,7.47-8.16,2.82-1.68,6.09-2.52,9.81-2.52,5.68,0,10.41,1.69,14.19,5.07,3.78,3.38,6.56,7.67,8.34,12.87,1.78,5.2,2.67,10.6,2.67,16.2s-.88,10.65-2.64,15.75c-1.76,5.1-4.61,9.34-8.55,12.72-3.94,3.38-8.99,5.07-15.15,5.07-3.56,0-6.59-.65-9.09-1.95-2.5-1.3-4.69-3.37-6.57-6.21v30.48h-14.64v-74.52c0-3.72-.14-7.4-.42-11.04Zm15.78,40.74c1.04,3.36,2.64,6.13,4.8,8.31,2.16,2.18,4.78,3.27,7.86,3.27s5.63-1.08,7.77-3.24,3.73-4.94,4.77-8.34c1.04-3.4,1.56-6.96,1.56-10.68s-.48-7.25-1.44-10.95c-.96-3.7-2.47-6.81-4.53-9.33-2.06-2.52-4.63-3.78-7.71-3.78s-5.67,1.25-7.89,3.75c-2.22,2.5-3.9,5.64-5.04,9.42-1.14,3.78-1.71,7.53-1.71,11.25,0,3.52.52,6.96,1.56,10.32Z"/>
</svg>