<?xml version="1.0" encoding="UTF-8"?>
<svg id="Livello_1" data-name="Livello 1" xmlns="http://www.w3.org/2000/svg" viewBox="0 0 1488 200">
  <defs>
    <style>
      .cls-1 {
        fill: #000333;
      }
    </style>
  </defs>
  <path class="cls-1" d="m84.25,92.05c-2.02-2.02-3.03-5.01-3.03-8.97,0-7.92,4-11.88,12-11.88s12,3.96,12,11.88c0,3.96-1.01,6.95-3.03,8.97-2.02,2.02-5.01,3.03-8.97,3.03s-6.95-1.01-8.97-3.03Zm0,42.24c-2.02-2.02-3.03-5.01-3.03-8.97,0-7.92,4-11.88,12-11.88s12,3.96,12,11.88c0,3.96-1.01,6.95-3.03,8.97-2.02,2.02-5.01,3.03-8.97,3.03s-6.95-1.01-8.97-3.03Z"/>
  <path class="cls-1" d="m170.56,116.41c-2.36-1.06-5.02-2.65-7.98-4.77-2.52-1.76-4.65-3.06-6.39-3.9-1.74-.84-3.25-1.26-4.53-1.26-2.12,0-4.04.63-5.76,1.89s-3.68,3.51-5.88,6.75l-7.56-12.36c3.2-4.16,6.39-7.18,9.57-9.06,3.18-1.88,6.75-2.82,10.71-2.82,1.76,0,3.45.26,5.07.78,1.62.52,3.09,1.17,4.41,1.95,1.32.78,3,1.85,5.04,3.21l1.32.9c1.4.84,2.5,1.52,3.3,2.04,1.84,1.12,3.18,1.86,4.02,2.22.84.36,1.84.54,3,.54,1.32,0,2.51-.34,3.57-1.02,1.06-.68,2.55-1.88,4.47-3.6,1.92-1.72,3.32-2.94,4.2-3.66l6.6,11.52c-2.8,3.88-5.96,6.89-9.48,9.03-3.52,2.14-7.12,3.21-10.8,3.21-2.24,0-4.54-.53-6.9-1.59Z"/>
  <path class="cls-1" d="m294.25,135.25c-4.22-1.94-8.09-4.97-11.61-9.09l8.04-8.88c2.12,2,4.06,3.62,5.82,4.86,1.76,1.24,3.76,2.24,6,3,2.24.76,4.78,1.14,7.62,1.14,2,0,3.94-.29,5.82-.87,1.88-.58,3.42-1.45,4.62-2.61s1.8-2.6,1.8-4.32c0-1.52-.51-2.77-1.53-3.75-1.02-.98-2.35-1.77-3.99-2.37-1.64-.6-4.1-1.34-7.38-2.22l-3.78-1.02c-4.56-1.2-8.36-2.54-11.4-4.02-3.04-1.48-5.42-3.43-7.14-5.85-1.72-2.42-2.58-5.45-2.58-9.09,0-3.96,1.04-7.45,3.12-10.47,2.08-3.02,5.01-5.37,8.79-7.05,3.78-1.68,8.13-2.52,13.05-2.52,5.2,0,9.77.73,13.71,2.19,3.94,1.46,7.33,3.65,10.17,6.57l-8.16,8.76c-2.08-1.72-4.39-3.03-6.93-3.93-2.54-.9-5.23-1.35-8.07-1.35-2.36,0-4.47.31-6.33.93-1.86.62-3.31,1.48-4.35,2.58-1.04,1.1-1.56,2.37-1.56,3.81,0,1.76.76,3.24,2.28,4.44,1.52,1.2,3.34,2.16,5.46,2.88s4.9,1.52,8.34,2.4c1,.24,2.64.68,4.92,1.32,4.68,1.44,8.61,3.53,11.79,6.27,3.18,2.74,4.77,6.69,4.77,11.85,0,6.44-2.37,11.27-7.11,14.49-4.74,3.22-11.01,4.83-18.81,4.83-6.04,0-11.17-.97-15.39-2.91Z"/>
  <path class="cls-1" d="m365.68,134.41c-4.24-2.74-7.45-6.68-9.63-11.82-2.18-5.14-3.27-11.27-3.27-18.39s1.16-12.95,3.48-18.09c2.32-5.14,5.61-9.09,9.87-11.85,4.26-2.76,9.25-4.14,14.97-4.14s10.71,1.37,14.97,4.11c4.26,2.74,7.55,6.68,9.87,11.82,2.32,5.14,3.48,11.19,3.48,18.15s-1.09,13.19-3.27,18.33c-2.18,5.14-5.39,9.09-9.63,11.85-4.24,2.76-9.38,4.14-15.42,4.14s-11.18-1.37-15.42-4.11Zm5.19-14.28c2.38,3.78,5.71,5.67,9.99,5.67s7.94-1.89,10.38-5.67c2.44-3.78,3.66-9.01,3.66-15.69,0-4.4-.56-8.23-1.68-11.49-1.12-3.26-2.74-5.76-4.86-7.5-2.12-1.74-4.62-2.61-7.5-2.61s-5.16.87-7.2,2.61c-2.04,1.74-3.61,4.24-4.71,7.5-1.1,3.26-1.65,7.09-1.65,11.49,0,6.68,1.19,11.91,3.57,15.69Z"/>
  <path class="cls-1" d="m442.6,84.76h-16.8v-11.52h16.92v-11.52c0-6.96,2.05-11.94,6.15-14.94s9.77-4.5,17.01-4.5,12.08.16,14.52.48v11.64c-.44,0-1.22-.04-2.34-.12-3.44-.16-6.26-.24-8.46-.24-2.68,0-4.92.26-6.72.78-1.8.52-3.21,1.49-4.23,2.91-1.02,1.42-1.53,3.43-1.53,6.03v9.48h18.48v11.52h-18.24v52.56h-14.76v-52.56Z"/>
  <path class="cls-1" d="m521.26,133.93c-3.04-2.74-4.56-6.85-4.56-12.33v-38.64h-18v-11.64h18v-24.12h14.52v24.12h18.6v11.64h-18.6v32.28c0,2.88.29,5.1.87,6.66.58,1.56,1.56,2.66,2.94,3.3,1.38.64,3.35.96,5.91.96,1.36,0,3.29-.16,5.79-.48,2.5-.32,4.49-.64,5.97-.96v11.52c-1.68.44-4.21.85-7.59,1.23-3.38.38-6.33.57-8.85.57-6.96,0-11.96-1.37-15-4.11Z"/>
  <path class="cls-1" d="m565.12,71.32h15l5.4,48,.66-1.32,6.3-36.84h9.12l6.48,36.84.6,1.32,6.72-48h13.68l-11.52,66h-13.56l-6.9-31.92-7.26,31.92h-13.68l-11.04-66Z"/>
  <path class="cls-1" d="m646.66,133.3c-3.64-3.48-5.46-8.22-5.46-14.22,0-8.24,3.12-14,9.36-17.28,6.24-3.28,14.04-4.92,23.4-4.92h7.32v-2.64c0-1.8-.38-3.61-1.14-5.43-.76-1.82-2.06-3.37-3.9-4.65-1.84-1.28-4.3-1.92-7.38-1.92s-5.87.61-8.61,1.83c-2.74,1.22-5.45,2.85-8.13,4.89l-7.2-9.12c3.68-3.08,7.49-5.41,11.43-6.99,3.94-1.58,8.61-2.37,14.01-2.37,9.16,0,15.69,2.18,19.59,6.54,3.9,4.36,5.85,10.38,5.85,18.06v23.28c0,5.04.4,11.36,1.2,18.96h-14.88c-.28-2.44-.48-5.28-.6-8.52-3.72,6.48-10.04,9.72-18.96,9.72-6.96,0-12.26-1.74-15.9-5.22Zm11.07-7.92c2.3,1.56,5.11,2.34,8.43,2.34,5.08,0,8.85-1.78,11.31-5.34,2.46-3.56,3.69-8.58,3.69-15.06h-4.92c-7.32,0-12.81.83-16.47,2.49-3.66,1.66-5.49,4.45-5.49,8.37,0,3.24,1.15,5.64,3.45,7.2Z"/>
  <path class="cls-1" d="m723.82,116.32c.04-4.44.06-10.12.06-17.04,0-4.24-.12-7.39-.36-9.45-.24-2.06-.64-4.63-1.2-7.71h-9.84v-10.8h21.78l2.22,11.16c1.88-4.76,4.54-8.05,7.98-9.87,3.44-1.82,7.02-2.73,10.74-2.73,2.56,0,5.49.76,8.79,2.28,3.3,1.52,5.97,3.28,8.01,5.28l-8.28,9.84c-1.32-1.24-2.89-2.23-4.71-2.97-1.82-.74-4.09-1.11-6.81-1.11-2.52,0-4.83.88-6.93,2.64-2.1,1.76-3.77,4.35-5.01,7.77-1.24,3.42-1.86,7.55-1.86,12.39v31.32h-14.64l.06-21Z"/>
  <path class="cls-1" d="m801.58,134.65c-4.68-2.58-8.49-6.42-11.43-11.52-2.94-5.1-4.41-11.25-4.41-18.45,0-6.76,1.22-12.75,3.66-17.97,2.44-5.22,5.91-9.27,10.41-12.15s9.77-4.32,15.81-4.32c9.64,0,16.59,3.3,20.85,9.9,4.26,6.6,6.39,15.98,6.39,28.14h-42.72c.24,5.92,1.87,10.4,4.89,13.44,3.02,3.04,7.11,4.56,12.27,4.56,3.76,0,7.39-.54,10.89-1.62,3.5-1.08,5.99-2.3,7.47-3.66l5.52,10.08c-1.56,1.24-3.69,2.44-6.39,3.6-2.7,1.16-5.68,2.09-8.94,2.79-3.26.7-6.43,1.05-9.51,1.05-5.16,0-10.08-1.29-14.76-3.87Zm27.96-37.41c0-3-.6-5.69-1.8-8.07-1.2-2.38-2.86-4.25-4.98-5.61-2.12-1.36-4.5-2.04-7.14-2.04s-5.16.66-7.44,1.98-4.09,3.17-5.43,5.55c-1.34,2.38-2.01,5.11-2.01,8.19h28.8Z"/>
  <path class="cls-1" d="m891.7,31.3v137.64h-13.8V31.3h13.8Z"/>
  <path class="cls-1" d="m925.12,71.32h15l5.4,48,.66-1.32,6.3-36.84h9.12l6.48,36.84.6,1.32,6.72-48h13.68l-11.52,66h-13.56l-6.9-31.92-7.26,31.92h-13.68l-11.04-66Z"/>
  <path class="cls-1" d="m1013.68,134.41c-4.24-2.74-7.45-6.68-9.63-11.82-2.18-5.14-3.27-11.27-3.27-18.39s1.16-12.95,3.48-18.09c2.32-5.14,5.61-9.09,9.87-11.85,4.26-2.76,9.25-4.14,14.97-4.14s10.71,1.37,14.97,4.11c4.26,2.74,7.55,6.68,9.87,11.82,2.32,5.14,3.48,11.19,3.48,18.15s-1.09,13.19-3.27,18.33c-2.18,5.14-5.39,9.09-9.63,11.85-4.24,2.76-9.38,4.14-15.42,4.14s-11.18-1.37-15.42-4.11Zm5.19-14.28c2.38,3.78,5.71,5.67,9.99,5.67s7.94-1.89,10.38-5.67c2.44-3.78,3.66-9.01,3.66-15.69,0-4.4-.56-8.23-1.68-11.49-1.12-3.26-2.74-5.76-4.86-7.5-2.12-1.74-4.62-2.61-7.5-2.61s-5.16.87-7.2,2.61c-2.04,1.74-3.61,4.24-4.71,7.5-1.1,3.26-1.65,7.09-1.65,11.49,0,6.68,1.19,11.91,3.57,15.69Z"/>
  <path class="cls-1" d="m1083.82,116.32c.04-4.44.06-10.12.06-17.04,0-4.24-.12-7.39-.36-9.45-.24-2.06-.64-4.63-1.2-7.71h-9.84v-10.8h21.78l2.22,11.16c1.88-4.76,4.54-8.05,7.98-9.87,3.44-1.82,7.02-2.73,10.74-2.73,2.56,0,5.49.76,8.79,2.28,3.3,1.52,5.97,3.28,8.01,5.28l-8.28,9.84c-1.32-1.24-2.89-2.23-4.71-2.97-1.82-.74-4.09-1.11-6.81-1.11-2.52,0-4.83.88-6.93,2.64-2.1,1.76-3.77,4.35-5.01,7.77-1.24,3.42-1.86,7.55-1.86,12.39v31.32h-14.64l.06-21Z"/>
  <path class="cls-1" d="m1159.84,107.74v29.58h-14.16V42.52h14.16v58.74l21.96-29.94h16.32l-24,32.88,26.4,33.12h-16.56l-24.12-29.58Z"/>
  <path class="cls-1" d="m1233.58,134.65c-4.68-2.58-8.49-6.42-11.43-11.52-2.94-5.1-4.41-11.25-4.41-18.45,0-6.76,1.22-12.75,3.66-17.97,2.44-5.22,5.91-9.27,10.41-12.15s9.77-4.32,15.81-4.32c9.64,0,16.59,3.3,20.85,9.9,4.26,6.6,6.39,15.98,6.39,28.14h-42.72c.24,5.92,1.87,10.4,4.89,13.44,3.02,3.04,7.11,4.56,12.27,4.56,3.76,0,7.39-.54,10.89-1.62,3.5-1.08,5.99-2.3,7.47-3.66l5.52,10.08c-1.56,1.24-3.69,2.44-6.39,3.6-2.7,1.16-5.68,2.09-8.94,2.79-3.26.7-6.43,1.05-9.51,1.05-5.16,0-10.08-1.29-14.76-3.87Zm27.96-37.41c0-3-.6-5.69-1.8-8.07-1.2-2.38-2.86-4.25-4.98-5.61-2.12-1.36-4.5-2.04-7.14-2.04s-5.16.66-7.44,1.98-4.09,3.17-5.43,5.55c-1.34,2.38-2.01,5.11-2.01,8.19h28.8Z"/>
  <path class="cls-1" d="m1299.82,116.32c.04-4.44.06-10.12.06-17.04,0-4.24-.12-7.39-.36-9.45-.24-2.06-.64-4.63-1.2-7.71h-9.84v-10.8h21.78l2.22,11.16c1.88-4.76,4.54-8.05,7.98-9.87,3.44-1.82,7.02-2.73,10.74-2.73,2.56,0,5.49.76,8.79,2.28,3.3,1.52,5.97,3.28,8.01,5.28l-8.28,9.84c-1.32-1.24-2.89-2.23-4.71-2.97-1.82-.74-4.09-1.11-6.81-1.11-2.52,0-4.83.88-6.93,2.64-2.1,1.76-3.77,4.35-5.01,7.77-1.24,3.42-1.86,7.55-1.86,12.39v31.32h-14.64l.06-21Z"/>
  <path class="cls-1" d="m1374.25,135.25c-4.22-1.94-8.09-4.97-11.61-9.09l8.04-8.88c2.12,2,4.06,3.62,5.82,4.86,1.76,1.24,3.76,2.24,6,3,2.24.76,4.78,1.14,7.62,1.14,2,0,3.94-.29,5.82-.87,1.88-.58,3.42-1.45,4.62-2.61s1.8-2.6,1.8-4.32c0-1.52-.51-2.77-1.53-3.75-1.02-.98-2.35-1.77-3.99-2.37-1.64-.6-4.1-1.34-7.38-2.22l-3.78-1.02c-4.56-1.2-8.36-2.54-11.4-4.02-3.04-1.48-5.42-3.43-7.14-5.85-1.72-2.42-2.58-5.45-2.58-9.09,0-3.96,1.04-7.45,3.12-10.47,2.08-3.02,5.01-5.37,8.79-7.05,3.78-1.68,8.13-2.52,13.05-2.52,5.2,0,9.77.73,13.71,2.19,3.94,1.46,7.33,3.65,10.17,6.57l-8.16,8.76c-2.08-1.72-4.39-3.03-6.93-3.93-2.54-.9-5.23-1.35-8.07-1.35-2.36,0-4.47.31-6.33.93-1.86.62-3.31,1.48-4.35,2.58-1.04,1.1-1.56,2.37-1.56,3.81,0,1.76.76,3.24,2.28,4.44,1.52,1.2,3.34,2.16,5.46,2.88s4.9,1.52,8.34,2.4c1,.24,2.64.68,4.92,1.32,4.68,1.44,8.61,3.53,11.79,6.27,3.18,2.74,4.77,6.69,4.77,11.85,0,6.44-2.37,11.27-7.11,14.49-4.74,3.22-11.01,4.83-18.81,4.83-6.04,0-11.17-.97-15.39-2.91Z"/>
</svg>