domain	zone_id	subdomain	type	ttl	value
cloudmeup.io		@	A	10800	217.70.184.38
cloudmeup.io		@	MX	10800	10 spool.mail.gandi.net.
cloudmeup.io		@	MX	10800	50 fb.mail.gandi.net.
cloudmeup.io		@	TXT	10800	"""v=spf1 include:_mailcust.gandi.net ?all"""
cloudmeup.io		blog	CNAME	10800	blogs.vip.gandi.net.
cloudmeup.io		webmail	CNAME	10800	webmail.gandi.net.
cloudmeup.io		www	CNAME	10800	webredir.vip.gandi.net.
7fiori.it		@	A	10800	94.23.70.58
7fiori.it		@	MX	10800	10 spool.mail.gandi.net.
7fiori.it		@	MX	10800	50 fb.mail.gandi.net.
7fiori.it		@	TXT	10800	"""v=spf1 include:_mailcust.gandi.net ?all"""
7fiori.it		cloud	CNAME	1800	node001.meup.it.
7fiori.it		conf	CNAME	10800	webredir.vip.gandi.net.
7fiori.it		pad	CNAME	1800	node001.meup.it.
7fiori.it		webmail	CNAME	10800	webmail.gandi.net.
7fiori.it		www	CNAME	10800	webredir.vip.gandi.net.
7fiori.it		_imap._tcp	SRV	10800	0 0 0 .
7fiori.it		_imaps._tcp	SRV	10800	0 1 993 mail.gandi.net.
7fiori.it		_pop3._tcp	SRV	10800	0 0 0 .
7fiori.it		_pop3s._tcp	SRV	10800	10 1 995 mail.gandi.net.
7fiori.it		_submission._tcp	SRV	10800	0 1 465 mail.gandi.net.
cloudmeup.it		@	A	10800	217.70.184.38
cloudmeup.it		@	MX	10800	10 spool.mail.gandi.net.
cloudmeup.it		@	MX	10800	50 fb.mail.gandi.net.
cloudmeup.it		@	TXT	10800	"""v=spf1 include:_mailcust.gandi.net ?all"""
cloudmeup.it		blog	CNAME	10800	blogs.vip.gandi.net.
cloudmeup.it		webmail	CNAME	10800	webmail.gandi.net.
cloudmeup.it		www	CNAME	10800	webredir.vip.gandi.net.
cloudmeup.it		_now	TXT	10800	"""QmNq7KBq4H8zYBWYHweiVvZCmv1LxJVoRv5PCgawkiWUVw"""
cloudmeup.eu		@	A	10800	217.70.184.38
cloudmeup.eu		@	MX	10800	10 spool.mail.gandi.net.
cloudmeup.eu		@	MX	10800	50 fb.mail.gandi.net.
cloudmeup.eu		@	TXT	10800	"""v=spf1 include:_mailcust.gandi.net ?all"""
cloudmeup.eu		blog	CNAME	10800	blogs.vip.gandi.net.
cloudmeup.eu		webmail	CNAME	10800	webmail.gandi.net.
cloudmeup.eu		www	CNAME	10800	webredir.vip.gandi.net.
narratron.io		@	A	10800	94.23.70.58
narratron.io		@	MX	10800	10 spool.mail.gandi.net.
narratron.io		@	MX	10800	50 fb.mail.gandi.net.
narratron.io		@	TXT	10800	"""v=spf1 include:_mailcust.gandi.net ?all"""
narratron.io		cloud	CNAME	1800	node001.meup.it.
narratron.io		conf	CNAME	10800	webredir.gandi.net.
narratron.io		f93j6h10	CNAME	10800	webredir.vip.gandi.net.
narratron.io		forum	CNAME	1800	node001.meup.it.
narratron.io		pad	CNAME	1800	node001.meup.it.
narratron.io		pcto	CNAME	10800	webredir.gandi.net.
softwareworkers.io		@	A	10800	217.70.184.38
softwareworkers.io		@	MX	10800	10 spool.mail.gandi.net.
softwareworkers.io		@	MX	10800	50 fb.mail.gandi.net.
softwareworkers.io		@	TXT	10800	"""v=spf1 include:_mailcust.gandi.net ?all"""
softwareworkers.io		blog	CNAME	10800	blogs.vip.gandi.net.
softwareworkers.io		webmail	CNAME	10800	webmail.gandi.net.
softwareworkers.io		www	CNAME	10800	webredir.vip.gandi.net.
itup.it		@	A	10800	217.70.184.38
itup.it		@	MX	10800	10 spool.mail.gandi.net.
itup.it		@	MX	10800	50 fb.mail.gandi.net.
itup.it		@	TXT	10800	"""v=spf1 include:_mailcust.gandi.net ?all"""
itup.it		gm1._domainkey	CNAME	10800	gm1.gandimail.net.
itup.it		gm2._domainkey	CNAME	10800	gm2.gandimail.net.
itup.it		gm3._domainkey	CNAME	10800	gm3.gandimail.net.
itup.it		webmail	CNAME	10800	webmail.gandi.net.
itup.it		www	CNAME	10800	webredir.vip.gandi.net.
itup.it		_imap._tcp	SRV	10800	0 0 0   .
itup.it		_imaps._tcp	SRV	10800	0 1 993 mail.gandi.net.
itup.it		_pop3._tcp	SRV	10800	0 0 0   .
itup.it		_pop3s._tcp	SRV	10800	10 1 995 mail.gandi.net.
itup.it		_submission._tcp	SRV	10800	0 1 465 mail.gandi.net.
meup.it		@	A	3600	192.30.252.153
meup.it		@	MX	3600	0 mx1.meup.it.
meup.it		@	TXT	3600	"""v=spf1 mx -all"""
meup.it		admin	A	3600	188.165.234.93
meup.it		demo	MX	3600	1 mx1.meup.it.
meup.it		dkim._domainkey	TXT	3600	"""k=rsa; t=s; p=MIIBIjANBgkqhkiG9w0BAQEFAAOCAQ8AMIIBCgKCAQEA0dOJdpy0VPq+/iOzAb6/MvsWp/xqqbi5qvFCibt7kp7uCMe3vOgcQdc6hH2YPvjfEw4Og0m67gRsmo/lWbI+ASc6jquf+CLjsiRHlWxUAqQWmb2/BAtkH0NW7Zbg3CnOqUjYUMIVtZloMQwGk/1gYu0JlJ+Q6JiKHvy9JPPscMlr7kCy+9r+TTFZ9tEUQVMm"" ""eHlUwXDjHnr29Lhy/3xX4Z835cSP+X/niFPDoEqtxFDPB5xcVYRAAC5HnXHTUbO/TG+pP+IiDVVZ4WZgfi3qOevg+/Zxy3zQE1YzYh2oIZHBTFsPnQqDCdX6AIXbzgKx7ynmVW7kBRXJEvUILL3z9wIDAQAB"""
meup.it		imap	A	3600	188.165.234.93
meup.it		imap2	A	3600	188.165.234.93
meup.it		mail	A	3600	188.165.234.93
meup.it		mx1	A	3600	188.165.234.93
meup.it		node001	A	3600	94.23.70.58
meup.it		proxy	CNAME	1800	node001
meup.it		submission	A	3600	188.165.234.93
meup.it		test	MX	3600	1 aspmx.l.google.com.
meup.it		_dmarc	TXT	3600	"""v=DMARC1; p=reject; adkim=s; aspf=s; sp=reject"""
meup.it		_imaps._tcp	SRV	3600	0 4 993 imap.softwareworkers.it.
meup.it		_submission._tcp	SRV	3600	0 4 587 submission.softwareworkers.it.
cloudmeup.org		@	A	10800	217.70.184.38
cloudmeup.org		@	MX	10800	10 spool.mail.gandi.net.
cloudmeup.org		@	MX	10800	50 fb.mail.gandi.net.
cloudmeup.org		@	TXT	10800	"""v=spf1 include:_mailcust.gandi.net ?all"""
cloudmeup.org		blog	CNAME	10800	blogs.vip.gandi.net.
cloudmeup.org		dev	CNAME	10800	alias.zeit.co.
cloudmeup.org		devel.www	CNAME	10800	alias.zeit.co.
cloudmeup.org		webmail	CNAME	10800	webmail.gandi.net.
cloudmeup.org		www	CNAME	10800	alias.zeit.co.
cloudmeup.org		_now	TXT	10800	"""ad7c44ee040c54af0e0f33e3eafbb70f565366018a132c6e074ffcfe521c8b21"""
cloudmeup.org		_now.cloudmeup.org.cloudmeup.org	TXT	10800	"""ad7c44ee040c54af0e0f33e3eafbb70f565366018a132c6e074ffcfe521c8b21"""
narratron.net		@	A	10800	217.70.184.38
narratron.net		@	MX	10800	10 spool.mail.gandi.net.
narratron.net		@	MX	10800	50 fb.mail.gandi.net.
narratron.net		@	TXT	10800	"""v=spf1 include:_mailcust.gandi.net ?all"""
narratron.net		blog	CNAME	10800	blogs.vip.gandi.net.
narratron.net		webmail	CNAME	10800	webmail.gandi.net.
narratron.net		www	CNAME	10800	webredir.vip.gandi.net.
narratron.it		@	A	10800	217.70.184.38
narratron.it		@	MX	10800	10 spool.mail.gandi.net.
narratron.it		@	MX	10800	50 fb.mail.gandi.net.
narratron.it		@	TXT	10800	"""v=spf1 include:_mailcust.gandi.net ?all"""
narratron.it		blog	CNAME	10800	blogs.vip.gandi.net.
narratron.it		webmail	CNAME	10800	webmail.gandi.net.
narratron.it		www	CNAME	10800	webredir.vip.gandi.net.
a9i.it		@	A	10800	217.70.184.38
a9i.it		@	MX	10800	0 mx1.meup.it.
a9i.it		@	TXT	10800	"""v=spf1 mx -all"""
a9i.it		cloud	CNAME	1800	proxy.meup.it.
a9i.it		conf	CNAME	10800	webredir.vip.gandi.net.
a9i.it		dkim._domainkey	TXT	10800	"""v=DKIM1; k=rsa; t=s; p=MIIBIjANBgkqhkiG9w0BAQEFAAOCAQ8AMIIBCgKCAQEArKivoROx0O1QvYvQRzzWuILFQP5HeZE6UHTnfLwtTlcCWaSVFRZ+cxlWrCKlJxdnhnmSbQucxDYtZ9od/YSe01xEXPgMf1nTa5PO/EqSKqncJuP90YVWh+LE3S3CBIV9E6sea44el6JT7cYaj1/WIMMaxVss3JRArs+92h3lDPscVjaTyKHxPWP"" ""5oD+6LWg2ra4LKnVQzkQN89hykSy69ZCxVR18JxRd2a3p/y2R0fnCyCQD3xFXxt4Ru6G3OgQ6RYLwUyeguUZsMdP6U0kWHlXUkGp6iadttXdJLf+TXQeSQ18fEmw2ZFnNG5GYcMWzOyhsC+wxyHrp0WXdVJ9Z8QIDAQAB"""
a9i.it		newcloud	CNAME	1800	proxy.meup.it.
a9i.it		oldcloud	CNAME	1800	proxy.meup.it.
a9i.it		pad	CNAME	1800	proxy.meup.it.
a9i.it		www	CNAME	10800	webredir.vip.gandi.net.
a9i.it		_dmarc	TXT	10800	"""v=DMARC1; p=reject; adkim=s; aspf=s; sp=reject"""
a9i.it		_imaps._tcp	SRV	10800	0 1 993 imap.meup.it.
a9i.it		_submission._tcp	SRV	10800	0 1 465 submission.meup.it.
softwareworkers.net		@	A	10800	217.70.184.38
softwareworkers.net		@	MX	10800	10 spool.mail.gandi.net.
softwareworkers.net		@	MX	10800	50 fb.mail.gandi.net.
softwareworkers.net		@	TXT	10800	"""v=spf1 include:_mailcust.gandi.net ?all"""
softwareworkers.net		blog	CNAME	10800	blogs.vip.gandi.net.
softwareworkers.net		webmail	CNAME	10800	webmail.gandi.net.
softwareworkers.net		www	CNAME	10800	webredir.vip.gandi.net.
xelera.it		*.wpmu	CNAME	600	wp
xelera.it		@	A	10800	217.70.184.38
xelera.it		@	MX	600	10 0.a.mx.0xe1.net.
xelera.it		@	TXT	600	"""v=spf1 a mx -all"""
xelera.it		beta	CNAME	600	node103
xelera.it		ftp	CNAME	600	www
xelera.it		lists	A	600	46.4.214.68
xelera.it		lists	MX	600	10 0.a.mx.0xe1.net.
xelera.it		mail	CNAME	600	www
xelera.it		node103	A	600	46.4.214.68
xelera.it		stats	CNAME	600	www
xelera.it		support	CNAME	600	node103
xelera.it		technopoiesis	CNAME	600	node103
xelera.it		wp	CNAME	600	node103
xelera.it		wpmu	CNAME	600	node103
xelera.it		www	CNAME	600	xelera-eu.netlify.com.
xelera.it		_submission._tcp	SRV	600	0 1 587 mail.heimat.it.
xelera.eu		*.wpmu	CNAME	600	wp
xelera.eu		@	A	10800	217.70.184.38
xelera.eu		@	MX	600	10 0.a.mx.0xe1.net.
xelera.eu		@	TXT	600	"""v=spf1 a mx -all"""
xelera.eu		beta	CNAME	600	node103
xelera.eu		ftp	CNAME	600	www
xelera.eu		git.intranet	A	600	10.5.2.105
xelera.eu		lists	A	600	46.4.214.68
xelera.eu		lists	MX	600	10 0.a.mx.0xe1.net.
xelera.eu		mail	CNAME	600	www
xelera.eu		node103	A	600	46.4.214.68
xelera.eu		stats	CNAME	600	www
xelera.eu		support	A	600	46.4.214.68
xelera.eu		support	MX	600	10 0.a.mx.0xe1.net.
xelera.eu		technopoiesis	CNAME	600	node103
xelera.eu		wp	CNAME	600	node103
xelera.eu		wpmu	CNAME	600	node103
xelera.eu		www	CNAME	600	xelera-eu.netlify.com.
xelera.eu		_submission._tcp	SRV	600	0 1 587 mail.heimat.it.
heimat.it		*.apps	CNAME	600	web67
heimat.it		@	A	10800	217.70.184.38
heimat.it		@	MX	600	10 0.a.mx.0xe1.net.
heimat.it		@	TXT	600	"""v=spf1 a mx -all"""
heimat.it		apps	CNAME	600	web67
heimat.it		beta	CNAME	600	web68
heimat.it		imap	CNAME	600	0.a.mx.0xe1.net.
heimat.it		mail	CNAME	600	0.a.mx.0xe1.net.
heimat.it		node-poire.108	A	600	89.16.177.108
heimat.it		node-poire.109	A	600	89.16.177.109
heimat.it		ns12	A	600	89.16.177.105
heimat.it		ns13	A	600	46.4.214.66
heimat.it		panel	CNAME	600	web67
heimat.it		park	CNAME	600	web68
heimat.it		poire	CNAME	600	ns12
heimat.it		pop	CNAME	600	0.a.mx.0xe1.net.
heimat.it		pop3	CNAME	600	0.a.mx.0xe1.net.
heimat.it		secure	CNAME	600	web68
heimat.it		smtp	CNAME	600	0.a.mx.0xe1.net.
heimat.it		srv14	A	600	89.16.177.106
heimat.it		stats	CNAME	600	web68
heimat.it		web67	A	600	46.4.214.67
heimat.it		web68	A	600	46.4.214.68
heimat.it		webmail	CNAME	600	web67
heimat.it		www	CNAME	600	xelera-eu.netlify.com.
heimat.it		xml	CNAME	600	web68
heimat.it		_acme-challenge.mail	TXT	1800	"""Zc3d_BdrylPvJQwhtzZQPe4XSPSPFILWkxmVgzXdBms"""
0xe1.net		0.a.mx	A	600	46.4.214.66
0xe1.net		0.a.ns	A	600	46.4.214.65
0xe1.net		@	MX	600	10 spool.mail.gandi.net.
0xe1.net		@	MX	600	50 fb.mail.gandi.net.
0xe1.net		@	TXT	600	"""v=spf1 a mx -all"""
0xe1.net		server.vpn.services	CNAME	600	x10navet.nodes
0xe1.net		x10navet.nodes	A	600	213.239.197.107
0xe1.net		x10navet101.nodes	A	600	46.4.214.65
0xe1.net		x10navet102.nodes	A	600	46.4.214.66
0xe1.net		x10navet106.nodes	A	600	46.4.214.69
0xe1.net		x10navet107.nodes	A	600	46.4.214.70
teknosynergy.com		@	A	3600	155.133.142.6
teknosynergy.com		@	AAAA	3600	2001:4b98:dc6:253::6
teknosynergy.com		@	MX	600	10 spool.mail.gandi.net.
teknosynergy.com		@	MX	600	50 fb.mail.gandi.net.
teknosynergy.com		@	TXT	600	"""v=spf1 include:_mailcust.gandi.net ?all"""
teknosynergy.com		blog	CNAME	10800	www
teknosynergy.com		ftp	CNAME	10800	www
teknosynergy.com		mail	CNAME	10800	mail.gandi.net.
teknosynergy.com		stats	CNAME	10800	www
teknosynergy.com		webmail	CNAME	600	webmail.gandi.net.
teknosynergy.com		www	CNAME	10800	webacc10.sd3.ghst.net.
teknosynergy.com		_0A685A85F5FB981E18F0F29A0AC92FE4	CNAME	10800	D9A00E8BA05AC42054318F0D62668542.3558B867A7D4CCC2D58E8AC30AE98BA6.9ab01348be1ccbf4df5c.comodoca.com.
teknosynergy.com		_1adef3e93de2e540b4d749caff15908e.test0	CNAME	10800	3bd488cea0f8e3094987cc887a0aa61b.3d8d80012b235cdd4452018752bfc278.e833405930e90a24f1b0.sectigo.com.
teknosynergy.com		_435240ef24abea2b68e26b7b6fc3f23a.test0	CNAME	10800	ffe40ed2ed419ab60ca6ba3438bd06f8.8d3e9250b0c435b6026f0ae671c18879.61dede89ddccbec715c8.comodoca.com.
teknosynergy.com		_50dcc9d3a6b8cfaa14f91f676cf45e19.test0	CNAME	10800	79337c3ea4a15d92ee60cbac02e157bd.d433146fcfc567f0e78520cd987cd8ab.a8d4cdaf2f42c756cede.sectigo.com.
teknosynergy.com		_62b45aaf6a1369e222a8fced911dae79.test0	CNAME	10800	4aec0aff9f5a63fb40744de19e8a7099.28fbdd6dbad6af481d58431d2c7a30fa.384cb854644425079bae.comodoca.com.
teknosynergy.com		_63ac70508724f0c242f157712cb623b3.test0	CNAME	10800	14bf2064d29aeeef3979550512f7b4d9.28775efc4242378334c3d05c30e96033.28ccee6fd479a8719fa9.sectigo.com.
teknosynergy.com		_811b15b442178af89173fd1d43f8a075.test0	CNAME	10800	947208662729ebb112593ffccb922953.fdea3e069344b3f9bdef8bc0155816fc.38ca89564b2259401518.comodoca.com.
teknosynergy.com		_910d28ae4c00b8811b31e64d2e3e15fe.test0	CNAME	10800	70565e7acffd9618e7af01b7c73b90d7.d0c68c6304125722a77d50d4f9d09ba1.4df31cc99fd10b0aedcf.sectigo.com.
teknosynergy.com		_aaf10989539ffe6c87c77a41af4efe13.test0	CNAME	10800	950385c093d29de69ca02f6df74abec5.2694bb0175f4a110aee50868dd7f5124.4eb0194ddf4d6c7a72dc.comodoca.com.
teknosynergy.com		_b1126a22198e644bd0a6190bce0143a7.test0	CNAME	10800	efb839c7ffc44bed0db7f5f4cb7c90de.dc49b66ded57e17a4e6e1a08f8286764.1f31606e625f642c0ed4.comodoca.com.
teknosynergy.com		_bc266a9c024ae7a6926e041cbdd1cb80.test0	CNAME	10800	103c5b49dcbe38fc9ed990a3a7781d33.c791cea481b23f85c9586daf54c25cc9.5134cb3d435ee631ad39.comodoca.com.
meup.io		@	A	10800	94.23.70.58
meup.io		@	MX	10800	10 spool.mail.gandi.net.
meup.io		@	MX	10800	50 fb.mail.gandi.net.
meup.io		@	TXT	10800	"""v=spf1 include:_mailcust.gandi.net ?all"""
meup.io		auth	CNAME	1800	node001.meup.it.
meup.io		beta	CNAME	1800	node001.meup.it.
meup.io		doc	CNAME	1800	node001.meup.it.
meup.io		forum.test	CNAME	1800	node001.meup.it.
meup.io		reload	CNAME	1800	node001.meup.it.
meup.io		testevent	CNAME	1800	node001.meup.it.
meup.io		www	CNAME	1800	node001.meup.it.
amolamiaterra.it		@	A	10800	192.30.252.153
amolamiaterra.it		@	MX	10800	1 mx1.meup.it.
amolamiaterra.it		@	TXT	10800	"""1|www.amolamiaterra.it"""
amolamiaterra.it		@	TXT	10800	"""v=spf1 mx -all"""
amolamiaterra.it		alessandro.marzocchi.at	TXT	600	"""alemarzoc@gmail.com"""
amolamiaterra.it		earthday2016.at	TXT	600	"""alemarzoc@gmail.com"""
amolamiaterra.it		ftp	CNAME	10800	amolamiaterra.it.
amolamiaterra.it		info.at	TXT	600	"""alemarzoc@gmail.com"""
amolamiaterra.it		www	A	10800	192.30.252.153
amolamiaterra.it		www	MX	10800	1 mx1.meup.it.
amolamiaterra.it		www	TXT	10800	"""3|welcome"""
amolamiaterra.it		www	TXT	10800	"""l|it"""
amolamiaterra.it		_imaps._tcp	SRV	10800	0 0 993 imap.meup.it.
amolamiaterra.it		_submission._tcp	SRV	10800	0 0 465 submission.meup.it.
sovranitadigitale.org		@	A	10800	217.70.184.38
sovranitadigitale.org		@	MX	10800	10 spool.mail.gandi.net.
sovranitadigitale.org		@	MX	10800	50 fb.mail.gandi.net.
sovranitadigitale.org		@	TXT	10800	"""v=spf1 include:_mailcust.gandi.net ?all"""
sovranitadigitale.org		webmail	CNAME	10800	webmail.gandi.net.
sovranitadigitale.org		www	CNAME	10800	webredir.vip.gandi.net.
sovranitadigitale.org		_imap._tcp	SRV	10800	0 0 0   .
sovranitadigitale.org		_imaps._tcp	SRV	10800	0 1 993 mail.gandi.net.
sovranitadigitale.org		_pop3._tcp	SRV	10800	0 0 0   .
sovranitadigitale.org		_pop3s._tcp	SRV	10800	10 1 995 mail.gandi.net.
sovranitadigitale.org		_submission._tcp	SRV	10800	0 1 465 mail.gandi.net.
softwareworkers.org		@	A	10800	217.70.184.38
softwareworkers.org		@	MX	10800	10 spool.mail.gandi.net.
softwareworkers.org		@	MX	10800	50 fb.mail.gandi.net.
softwareworkers.org		@	TXT	10800	"""v=spf1 include:_mailcust.gandi.net ?all"""
softwareworkers.org		blog	CNAME	10800	blogs.vip.gandi.net.
softwareworkers.org		webmail	CNAME	10800	webmail.gandi.net.
softwareworkers.org		www	CNAME	10800	webredir.vip.gandi.net.
softwareworkers.it		@	A	10800	94.23.70.58
softwareworkers.it		@	MX	10800	1 mx1.meup.it.
softwareworkers.it		@	TXT	10800	"""google-site-verification=auDsOeEM0fvtZvz7IfntMqeAfBjgOEqeWsieq2GWank"""
softwareworkers.it		@	TXT	10800	"""v=spf1 mx a:0.a.mx.0xe1.net -all"""
softwareworkers.it		a9icloud	CNAME	10800	proxy.meup.it.
softwareworkers.it		api	TXT	10800	"""test api"""
softwareworkers.it		beta	CNAME	10800	proxy.meup.it.
softwareworkers.it		conf	CNAME	10800	proxy.meup.it.
softwareworkers.it		dkim._domainkey	TXT	10800	"""k=rsa; t=s; p=MIIBIjANBgkqhkiG9w0BAQEFAAOCAQ8AMIIBCgKCAQEA14hRLF7x9QYycPeLQJvKfNvK9T4Rea5KNaXBsA4NY0C0MUfRkKwNUasTIpWJg9/BaHcL662MbLbHWF5AfxFohJBMAPSWhHcZ2lixoBhx7htPASRplp0k6KKgyCoVoxl9GJpXcWyUITvMsbR9sgKoIkyZsGODFYLqDJ3RVlonXNwSbGFvNOGioLeL1BcVxsQf"" ""R8UaQSgGxMAFvaLHzp1t5J3LY5r1ACusaDMPKQPhLif75RE/qoblZykBo/2K5YpekPmIyDXKV5ac8Zcx1L4rIknfa4If2+XzjEEUq9t+lIeYzYDJ0+bk9T0KtY/uKSHM46fTfdYtxHKjZcv663JP+QIDAQAB"""
softwareworkers.it		forum	CNAME	10800	proxy.meup.it.
softwareworkers.it		fosdem2017	A	10800	192.30.252.153
softwareworkers.it		git	A	10800	91.134.2.184
softwareworkers.it		kb	TXT	10800	"""1|https://gitlab.com/softwareworkers"""
softwareworkers.it		monitor	CNAME	10800	proxy.meup.it.
softwareworkers.it		moodle	CNAME	10800	proxy.meup.it.
softwareworkers.it		null	CNAME	10800	proxy.meup.it.
softwareworkers.it		pad	CNAME	10800	proxy.meup.it.
softwareworkers.it		test	CNAME	10800	proxy.meup.it.
softwareworkers.it		www	A	10800	94.23.70.58
softwareworkers.it		www	TXT	10800	"""3|welcome"""
softwareworkers.it		www	TXT	10800	"""l|it"""
softwareworkers.it		xtboard	CNAME	10800	proxy.meup.it.
softwareworkers.it		xtcloud	CNAME	10800	proxy.meup.it.
softwareworkers.it		_dmarc	TXT	10800	"""v=DMARC1; p=reject; adkim=r; aspf=r; sp=reject"""
softwareworkers.eu		@	A	10800	213.186.33.5
softwareworkers.eu		@	MX	10800	1 redirect.ovh.net.
softwareworkers.eu		@	TXT	10800	"""4|softwareworkers.it"""
softwareworkers.eu		www	A	10800	213.186.33.5
softwareworkers.eu		www	TXT	10800	"""4|softwareworkers.it"""
softwareworkers.eu		_autodiscover._tcp	SRV	10800	0 0 443 mailconfig.ovh.net.
softwareworkers.eu		_imaps._tcp	SRV	10800	0 0 993 ssl0.ovh.net.
softwareworkers.eu		_submission._tcp	SRV	10800	0 0 465 ssl0.ovh.net.
photoledger.com		@	A	10800	213.186.33.5
photoledger.com		@	MX	10800	1 redirect.ovh.net.
photoledger.com		@	TXT	10800	"""v=spf1 include:mx.ovh.com ~all"""
photoledger.com		@	TXT	10800	"""4|https://github.com/SoftwareWorkersSrl/photoledger.com/blob/master/README.md"""
photoledger.com		autoconfig	CNAME	10800	mailconfig.ovh.net.
photoledger.com		autodiscover	CNAME	10800	mailconfig.ovh.net.
photoledger.com		ftp	CNAME	10800	photoledger.com.
photoledger.com		imap	CNAME	10800	ssl0.ovh.net.
photoledger.com		mail	CNAME	10800	ssl0.ovh.net.
photoledger.com		pop3	CNAME	10800	ssl0.ovh.net.
photoledger.com		smtp	CNAME	10800	ssl0.ovh.net.
photoledger.com		www	A	10800	213.186.33.5
photoledger.com		www	TXT	10800	"""4|https://github.com/SoftwareWorkersSrl/photoledger.com/blob/master/README.md"""
photoledger.com		_autodiscover._tcp	SRV	10800	0 0 443 mailconfig.ovh.net.
photoledger.com		_imaps._tcp	SRV	10800	0 0 993 ssl0.ovh.net.
photoledger.com		_submission._tcp	SRV	10800	0 0 465 ssl0.ovh.net.
swws.it		@	A	10800	217.70.184.38
swws.it		@	MX	10800	10 spool.mail.gandi.net.
swws.it		@	MX	10800	50 fb.mail.gandi.net.
swws.it		@	TXT	10800	"""v=spf1 include:_mailcust.gandi.net ?all"""
swws.it		gm1._domainkey	CNAME	10800	gm1.gandimail.net.
swws.it		gm2._domainkey	CNAME	10800	gm2.gandimail.net.
swws.it		gm3._domainkey	CNAME	10800	gm3.gandimail.net.
swws.it		webmail	CNAME	10800	webmail.gandi.net.
swws.it		www	CNAME	10800	webredir.vip.gandi.net.
swws.it		_imap._tcp	SRV	10800	0 0 0   .
swws.it		_imaps._tcp	SRV	10800	0 1 993 mail.gandi.net.
swws.it		_pop3._tcp	SRV	10800	0 0 0   .
swws.it		_pop3s._tcp	SRV	10800	10 1 995 mail.gandi.net.
swws.it		_submission._tcp	SRV	10800	0 1 465 mail.gandi.net.
