"fqdn","tld","sld","date_registry_creation","date_registry_end_utc","autorenew","lapse","date_updated","client_transfer_prohibited","nameserver/current","dnssec","gandimail","mailboxv2","linkedzone","webhosting","advanced_dns","webredir","tags","note","orga_owner","nameserver0","nameserver1","nameserver2","nameserver3","nameserver4","nameserver5","nameserver6","nameserver7","nameserver8","nameserver9","owner/name","owner/ppname","owner/type","owner/address","owner/email","owner/whois","owner/antispam","admin/name","admin/ppname","admin/type","admin/address","admin/email","admin/whois","admin/antispam","tech/name","tech/ppname","tech/type","tech/address","tech/email","tech/whois","tech/antispam","bill/name","bill/ppname","bill/type","bill/address","bill/email","bill/whois","bill/antispam","reseller/name","reseller/ppname","reseller/type","reseller/address","reseller/email","reseller/whois","reseller/antispam","fqdn_ulabel"
"0xe1.net","net","","2007-04-06 18:03","2024-04-06 18:03","True","False","2024-01-07 18:04","True","livedns","False","True","True","False","False","False","False","xelera","","AR2344-GANDI","ns-161-a.gandi.net","ns-144-b.gandi.net","ns-157-c.gandi.net","","","","","","","","Andrea Rota","","0","via Carrobbio, 44 I-23899 Robbiate  Italy","domini@heimat.it","1","True","Semantica di Giovanni Biscuolo","Giovanni Biscuolo","4","Via Tiziano Vecellio, 18 20821 Meda Milano Italy","admin+domains@xelera.eu","1","True","Semantica di Giovanni Biscuolo","Giovanni Biscuolo","4","Via Tiziano Vecellio, 18 20821 Meda Milano Italy","admin+domains@xelera.eu","1","True","Semantica di Giovanni Biscuolo","Giovanni Biscuolo","4","Via Tiziano Vecellio, 18 20821 Meda Milano Italy","admin+domains@xelera.eu","1","True","","","","","","","","0xe1.net"
"7fiori.it","it","","2020-02-17 14:40","2024-02-17 22:59","False","False","2024-01-18 15:32","n/a","livedns","False","True","True","False","False","False","True","a9i","","Software Workers","ns-13-a.gandi.net","ns-169-b.gandi.net","ns-246-c.gandi.net","","","","","","","","Rosina Laura Spinelli","","0","Corso Garibaldi 77 20121 Milano Milano Italy","rossella.spinelli@yahoo.it","1","True","Rosina Laura Spinelli","","0","Corso Garibaldi 77 20121 Milano Milano Italy","rossella.spinelli@yahoo.it","1","True","SOFTWARE WORKERS srl","Giovanni Biscuolo","1","Via Marco Ulpio Traiano 72 20149 Milano Milano Italy","domain.tech@softwareworkers.it","1","True","SOFTWARE WORKERS srl","Andrea Rossi","1","Via Marco Ulpio Traiano 72 20149 Milano Milano Italy","domain.billing@softwareworkers.it","1","True","SOFTWARE WORKERS srl a socio unico","Andrea Rossi","4","Via Marco Ulpio Traiano 72 20149 Milano  Italy","regs@softwareworkers.it","1","False","7fiori.it"
"a9i.it","it","","2015-12-07 19:53","2024-03-20 22:59","False","False","2023-12-22 23:05","n/a","livedns","False","True","True","False","False","False","True","a9i","","Software Workers","ns-250-a.gandi.net","ns-173-b.gandi.net","ns-14-c.gandi.net","","","","","","","","Andrea Rossi","","0","Via Traiano 72 20149 Milano Milano Italy","p@a9i.it","True","True","Andrea Rossi","","0","Via Traiano 72 20149 Milano Milano Italy","p@a9i.it","True","True","Andrea Rossi","","0","Via Traiano 72 20149 Milano Milano Italy","p@a9i.it","True","True","Andrea Rossi","","0","Via Traiano 72 20149 Milano Milano Italy","p@a9i.it","True","True","SOFTWARE WORKERS srl a socio unico","Andrea Rossi","4","Via Marco Ulpio Traiano 72 20149 Milano  Italy","regs@softwareworkers.it","1","False","a9i.it"
"amolamiaterra.it","it","","2016-03-24 17:47","2024-03-17 22:59","False","False","2024-01-17 22:04","n/a","livedns","False","False","False","False","False","False","False","customers","","Software Workers","ns-166-a.gandi.net","ns-82-b.gandi.net","ns-145-c.gandi.net","","","","","","","","Alessandro Marzocchi","","0","Via Dei Carbonai 58043 Castiglione della Pescaia Grosseto Italy","alemarzoc@gmail.com","True","True","Alessandro Marzocchi","","0","Via Dei Carbonai 58043 Castiglione della Pescaia Grosseto Italy","alemarzoc@gmail.com","True","True","SOFTWARE WORKERS srl","Giovanni Biscuolo","1","Via Marco Ulpio Traiano 72 20149 Milano Milano Italy","domain.tech@softwareworkers.it","1","True","Alessandro Marzocchi","","0","Via Dei Carbonai 58043 Punta Ala Grosseto Italy","alemarzoc@gmail.com","1","True","SOFTWARE WORKERS srl a socio unico","Andrea Rossi","4","Via Marco Ulpio Traiano 72 20149 Milano  Italy","regs@softwareworkers.it","1","False","amolamiaterra.it"
"cloudmeup.eu","eu","","2018-05-18 13:50","2024-05-18 21:59","True","False","2023-05-26 22:15","n/a","livedns","False","False","True","False","False","False","False","sw","","Software Workers","ns-180-a.gandi.net","ns-197-b.gandi.net","ns-79-c.gandi.net","","","","","","","","SOFTWARE WORKERS srl a socio unico","Andrea Rossi","1","Via Marco Ulpio Traiano 72 20149 Milano Milano Italy","domain.owner@softwareworkers.it","1","True","SOFTWARE WORKERS srl a socio unico","Andrea Rossi","1","Via Marco Ulpio Traiano 72 20149 Milano Milano Italy","domain.admin@softwareworkers.it","1","True","SOFTWARE WORKERS srl a socio unico","Giovanni Biscuolo","1","Via Marco Ulpio Traiano 72 20149 Milano Milano Italy","domain.tech@softwareworkers.it","1","True","SOFTWARE WORKERS srl a socio unico","Andrea Rossi","1","Via Marco Ulpio Traiano 72 20149 Milano Milano Italy","domain.billing@softwareworkers.it","1","True","","","","","","","","cloudmeup.eu"
"cloudmeup.io","io","","2018-05-18 13:51","2024-05-18 13:51","True","False","2023-04-17 13:19","True","livedns","False","False","True","False","False","False","False","sw","","Software Workers","ns-203-a.gandi.net","ns-86-b.gandi.net","ns-0-c.gandi.net","","","","","","","","SOFTWARE WORKERS srl a socio unico","Andrea Rossi","1","Via Marco Ulpio Traiano 72 20149 Milano Milano Italy","domain.owner@softwareworkers.it","1","True","SOFTWARE WORKERS srl a socio unico","Andrea Rossi","1","Via Marco Ulpio Traiano 72 20149 Milano Milano Italy","domain.admin@softwareworkers.it","1","True","SOFTWARE WORKERS srl a socio unico","Giovanni Biscuolo","1","Via Marco Ulpio Traiano 72 20149 Milano Milano Italy","domain.tech@softwareworkers.it","1","True","SOFTWARE WORKERS srl a socio unico","Andrea Rossi","1","Via Marco Ulpio Traiano 72 20149 Milano Milano Italy","domain.billing@softwareworkers.it","1","True","","","","","","","","cloudmeup.io"
"cloudmeup.it","it","","2015-02-25 15:37","2025-02-13 22:59","True","False","2024-01-13 22:06","n/a","livedns","False","False","False","False","False","False","False","sw","","Software Workers","ns-174-a.gandi.net","ns-1-b.gandi.net","ns-83-c.gandi.net","","","","","","","","SOFTWARE WORKERS srl a socio unico","Andrea Rossi","1","Viale Monte Ceneri 78 20155 Milano Milano Italy","regs-gandi@softwareworkers.it","True","True","SOFTWARE WORKERS srl a socio unico","Andrea Rossi","1","Viale Monte Ceneri 78 20155 Milano Milano Italy","regs-gandi@softwareworkers.it","True","True","SOFTWARE WORKERS srl a socio unico","Andrea Rossi","1","Viale Monte Ceneri 78 20155 Milano Milano Italy","regs-gandi@softwareworkers.it","True","True","SOFTWARE WORKERS srl a socio unico","Andrea Rossi","1","Viale Monte Ceneri 78 20155 Milano Milano Italy","regs-gandi@softwareworkers.it","True","True","SOFTWARE WORKERS srl a socio unico","Andrea Rossi","4","Via Marco Ulpio Traiano 72 20149 Milano  Italy","regs@softwareworkers.it","1","False","cloudmeup.it"
"cloudmeup.org","org","","2018-05-18 13:50","2024-05-18 13:50","True","False","2023-04-17 13:18","True","livedns","False","False","True","False","False","False","False","sw","","Software Workers","ns-101-a.gandi.net","ns-63-b.gandi.net","ns-183-c.gandi.net","","","","","","","","SOFTWARE WORKERS srl a socio unico","Andrea Rossi","1","Via Marco Ulpio Traiano 72 20149 Milano Milano Italy","domain.owner@softwareworkers.it","1","True","SOFTWARE WORKERS srl a socio unico","Andrea Rossi","1","Via Marco Ulpio Traiano 72 20149 Milano Milano Italy","domain.owner@softwareworkers.it","1","True","SOFTWARE WORKERS srl a socio unico","Andrea Rossi","1","Via Marco Ulpio Traiano 72 20149 Milano Milano Italy","domain.owner@softwareworkers.it","1","True","SOFTWARE WORKERS srl a socio unico","Andrea Rossi","1","Via Marco Ulpio Traiano 72 20149 Milano Milano Italy","domain.owner@softwareworkers.it","1","True","","","","","","","","cloudmeup.org"
"heimat.it","it","","2000-01-23 23:00","2024-04-13 21:59","True","False","2024-01-15 22:08","n/a","livedns","False","False","False","False","False","False","True","xelera","","Semantica di Biscuolo Giovanni","ns-90-a.gandi.net","ns-161-b.gandi.net","ns-229-c.gandi.net","","","","","","","","Semantica di Biscuolo Giovanni","Semantica di Biscuolo Giovanni","1","via G. D'Annunzio, 33 20053 Muggio'  Italy","info@heimat.it","1","True","Semantica di Giovanni Biscuolo","Giovanni Biscuolo","4","Via Tiziano Vecellio, 18 20821 Meda Milano Italy","admin+domains@xelera.eu","1","True","Semantica di Giovanni Biscuolo","Giovanni Biscuolo","4","Via Tiziano Vecellio, 18 20821 Meda Milano Italy","admin+domains@xelera.eu","1","True","Semantica di Giovanni Biscuolo","Giovanni Biscuolo","4","Via Tiziano Vecellio, 18 20821 Meda Milano Italy","admin+domains@xelera.eu","1","True","Semantica di Giovanni Biscuolo","Giovanni Biscuolo","4","Via Tiziano Vecellio, 18 20821 Meda Milano Italy","admin+domains@xelera.eu","1","True","heimat.it"
"itup.it","it","","2022-06-07 11:47","2024-06-07 21:59","True","False","2023-05-07 21:08","n/a","livedns","False","False","True","False","False","False","False","sw","","Software Workers","ns-136-a.gandi.net","ns-167-b.gandi.net","ns-43-c.gandi.net","","","","","","","","SOFTWARE WORKERS srl a socio unico","Andrea Rossi","1","Via Traiano 72 20149 Milano Milano Italy","regs@softwareworkers.it","1","True","SOFTWARE WORKERS srl a socio unico","Andrea Rossi","1","Via Traiano 72 20149 Milano Milano Italy","regs@softwareworkers.it","1","True","SOFTWARE WORKERS srl a socio unico","Andrea Rossi","1","Via Traiano 72 20149 Milano Milano Italy","regs@softwareworkers.it","1","True","SOFTWARE WORKERS srl a socio unico","Andrea Rossi","1","Via Traiano 72 20149 Milano Milano Italy","regs@softwareworkers.it","1","True","SOFTWARE WORKERS srl a socio unico","Andrea Rossi","4","Via Marco Ulpio Traiano 72 20149 Milano  Italy","regs@softwareworkers.it","1","False","itup.it"
"meup.io","io","","2018-10-22 14:32","2024-10-22 14:32","True","False","2023-09-21 13:36","True","livedns","False","True","True","False","False","False","False","sw","","Software Workers","ns-116-a.gandi.net","ns-241-b.gandi.net","ns-158-c.gandi.net","","","","","","","","SOFTWARE WORKERS srl a socio unico","Andrea Rossi","1","Viale Monte Ceneri 78 20155 Milano Milano Italy","regs@softwareworkers.it","1","True","SOFTWARE WORKERS srl a socio unico","Andrea Rossi","1","Viale Monte Ceneri 78 20155 Milano Milano Italy","regs@softwareworkers.it","1","True","SOFTWARE WORKERS srl a socio unico","Andrea Rossi","1","Viale Monte Ceneri 78 20155 Milano Milano Italy","regs@softwareworkers.it","1","True","SOFTWARE WORKERS srl a socio unico","Andrea Rossi","1","Viale Monte Ceneri 78 20155 Milano Milano Italy","regs@softwareworkers.it","1","True","","","","","","","","meup.io"
"meup.it","it","","2015-02-25 15:38","2024-02-15 22:59","True","False","2024-01-16 22:06","n/a","livedns","False","False","False","False","False","False","False","sw","","Software Workers","ns-136-a.gandi.net","ns-214-b.gandi.net","ns-68-c.gandi.net","","","","","","","","SOFTWARE WORKERS srl a socio unico","Andrea Rossi","1","Viale Monte Ceneri 78 20155 Milano Milano Italy","regs-gandi@softwareworkers.it","True","True","SOFTWARE WORKERS srl a socio unico","Andrea Rossi","1","Viale Monte Ceneri 78 20155 Milano Milano Italy","regs-gandi@softwareworkers.it","True","True","SOFTWARE WORKERS srl a socio unico","Andrea Rossi","1","Viale Monte Ceneri 78 20155 Milano Milano Italy","regs-gandi@softwareworkers.it","True","True","SOFTWARE WORKERS srl a socio unico","Andrea Rossi","1","Viale Monte Ceneri 78 20155 Milano Milano Italy","regs-gandi@softwareworkers.it","True","True","SOFTWARE WORKERS srl a socio unico","Andrea Rossi","4","Via Marco Ulpio Traiano 72 20149 Milano  Italy","regs@softwareworkers.it","1","False","meup.it"
"narratron.io","io","","2019-06-13 15:54","2024-06-13 15:54","True","False","2023-05-13 14:59","True","livedns","False","True","True","False","False","False","True","sw","","Software Workers","ns-210-a.gandi.net","ns-42-b.gandi.net","ns-20-c.gandi.net","","","","","","","","SOFTWARE WORKERS srl a socio unico","Andrea Rossi","1","Viale Monte Ceneri 78 20155 Milano Milano Italy","regs-gandi@softwareworkers.it","1","True","SOFTWARE WORKERS srl a socio unico","Andrea Rossi","1","Viale Monte Ceneri 78 20155 Milano Milano Italy","regs-gandi@softwareworkers.it","1","True","SOFTWARE WORKERS srl a socio unico","Andrea Rossi","1","Viale Monte Ceneri 78 20155 Milano Milano Italy","regs-gandi@softwareworkers.it","1","True","SOFTWARE WORKERS srl a socio unico","Andrea Rossi","1","Viale Monte Ceneri 78 20155 Milano Milano Italy","regs-gandi@softwareworkers.it","1","True","SOFTWARE WORKERS srl a socio unico","Andrea Rossi","4","Via Marco Ulpio Traiano 72 20149 Milano  Italy","regs@softwareworkers.it","1","False","narratron.io"
"narratron.it","it","","2019-06-13 15:54","2024-06-13 21:59","True","False","2023-05-13 21:11","n/a","livedns","False","False","True","False","False","False","False","sw","","Software Workers","ns-122-a.gandi.net","ns-0-b.gandi.net","ns-224-c.gandi.net","","","","","","","","SOFTWARE WORKERS srl a socio unico","Andrea Rossi","1","Viale Monte Ceneri 78 20155 Milano Milano Italy","regs-gandi@softwareworkers.it","1","True","SOFTWARE WORKERS srl a socio unico","Andrea Rossi","1","Viale Monte Ceneri 78 20155 Milano Milano Italy","regs-gandi@softwareworkers.it","1","True","SOFTWARE WORKERS srl a socio unico","Andrea Rossi","1","Viale Monte Ceneri 78 20155 Milano Milano Italy","regs-gandi@softwareworkers.it","1","True","SOFTWARE WORKERS srl a socio unico","Andrea Rossi","1","Viale Monte Ceneri 78 20155 Milano Milano Italy","regs-gandi@softwareworkers.it","1","True","SOFTWARE WORKERS srl a socio unico","Andrea Rossi","4","Via Marco Ulpio Traiano 72 20149 Milano  Italy","regs@softwareworkers.it","1","False","narratron.it"
"narratron.net","net","","2019-06-13 15:54","2024-06-13 15:54","True","False","2023-05-13 14:59","True","livedns","False","False","True","False","False","False","False","sw","","Software Workers","ns-189-a.gandi.net","ns-189-b.gandi.net","ns-214-c.gandi.net","","","","","","","","SOFTWARE WORKERS srl a socio unico","Andrea Rossi","1","Viale Monte Ceneri 78 20155 Milano Milano Italy","regs-gandi@softwareworkers.it","1","True","SOFTWARE WORKERS srl a socio unico","Andrea Rossi","1","Viale Monte Ceneri 78 20155 Milano Milano Italy","regs-gandi@softwareworkers.it","1","True","SOFTWARE WORKERS srl a socio unico","Andrea Rossi","1","Viale Monte Ceneri 78 20155 Milano Milano Italy","regs-gandi@softwareworkers.it","1","True","SOFTWARE WORKERS srl a socio unico","Andrea Rossi","1","Viale Monte Ceneri 78 20155 Milano Milano Italy","regs-gandi@softwareworkers.it","1","True","SOFTWARE WORKERS srl a socio unico","Andrea Rossi","4","Via Marco Ulpio Traiano 72 20149 Milano  Italy","regs@softwareworkers.it","1","False","narratron.net"
"photoledger.com","com","","2017-05-10 10:21","2024-05-10 10:21","True","False","2023-04-14 15:48","True","livedns","False","False","True","False","False","False","False","a9i","","Software Workers","ns-94-a.gandi.net","ns-54-b.gandi.net","ns-114-c.gandi.net","","","","","","","","SOFTWARE WORKERS srl a socio unico","Andrea Rossi","1","Viale Monte Ceneri 78 20155 Milano Milano Italy","regs-gandi@softwareworkers.it","True","True","SOFTWARE WORKERS srl a socio unico","Andrea Rossi","1","Viale Monte Ceneri 78 20155 Milano Milano Italy","regs-gandi@softwareworkers.it","True","True","SOFTWARE WORKERS srl a socio unico","Andrea Rossi","1","Viale Monte Ceneri 78 20155 Milano Milano Italy","regs-gandi@softwareworkers.it","True","True","SOFTWARE WORKERS srl a socio unico","Andrea Rossi","1","Viale Monte Ceneri 78 20155 Milano Milano Italy","regs-gandi@softwareworkers.it","True","True","SOFTWARE WORKERS srl a socio unico","Andrea Rossi","4","Via Marco Ulpio Traiano 72 20149 Milano  Italy","regs@softwareworkers.it","1","False","photoledger.com"
"softwareworkers.eu","eu","","2015-11-02 10:34","2024-11-02 22:59","True","False","2023-11-10 22:11","n/a","livedns","False","False","True","False","False","False","False","sw","","Software Workers","ns-137-a.gandi.net","ns-160-b.gandi.net","ns-20-c.gandi.net","","","","","","","","SOFTWARE WORKERS srl a socio unico","Andrea Rossi","1","Viale Monte Ceneri 78 20155 Milano Milano Italy","regs-gandi@softwareworkers.it","True","True","SOFTWARE WORKERS srl a socio unico","Andrea Rossi","1","Viale Monte Ceneri 78 20155 Milano Milano Italy","regs-gandi@softwareworkers.it","True","True","SOFTWARE WORKERS srl a socio unico","Andrea Rossi","1","Viale Monte Ceneri 78 20155 Milano Milano Italy","regs-gandi@softwareworkers.it","True","True","SOFTWARE WORKERS srl a socio unico","Andrea Rossi","1","Viale Monte Ceneri 78 20155 Milano Milano Italy","regs-gandi@softwareworkers.it","True","True","SOFTWARE WORKERS srl a socio unico","Andrea Rossi","4","Via Marco Ulpio Traiano 72 20149 Milano  Italy","regs@softwareworkers.it","1","False","softwareworkers.eu"
"softwareworkers.io","io","","2018-05-18 13:50","2024-05-18 13:50","True","False","2023-04-17 13:18","True","livedns","False","False","True","False","False","False","False","sw","","Software Workers","ns-122-a.gandi.net","ns-91-b.gandi.net","ns-128-c.gandi.net","","","","","","","","SOFTWARE WORKERS srl a socio unico","Andrea Rossi","1","Viale Monte Ceneri 78 20155 Milano Milano Italy","regs@softwareworkers.it","1","True","SOFTWARE WORKERS srl a socio unico","Andrea Rossi","1","Viale Monte Ceneri 78 20155 Milano Milano Italy","regs@softwareworkers.it","1","True","SOFTWARE WORKERS srl a socio unico","Andrea Rossi","1","Viale Monte Ceneri 78 20155 Milano Milano Italy","regs@softwareworkers.it","1","True","SOFTWARE WORKERS srl a socio unico","Andrea Rossi","1","Viale Monte Ceneri 78 20155 Milano Milano Italy","regs@softwareworkers.it","1","True","","","","","","","","softwareworkers.io"
"softwareworkers.it","it","","2015-11-02 11:35","2024-10-20 21:59","True","False","2023-09-19 21:05","n/a","livedns","False","False","True","False","False","False","False","sw","","Software Workers","ns-239-a.gandi.net","ns-7-b.gandi.net","ns-102-c.gandi.net","","","","","","","","SOFTWARE WORKERS srl a socio unico","Andrea Rossi","1","Viale Monte Ceneri 78 20155 Milano Milano Italy","regs-gandi@softwareworkers.it","True","True","SOFTWARE WORKERS srl a socio unico","Andrea Rossi","1","Viale Monte Ceneri 78 20155 Milano Milano Italy","regs-gandi@softwareworkers.it","True","True","SOFTWARE WORKERS srl a socio unico","Andrea Rossi","1","Viale Monte Ceneri 78 20155 Milano Milano Italy","regs-gandi@softwareworkers.it","True","True","SOFTWARE WORKERS srl a socio unico","Andrea Rossi","1","Viale Monte Ceneri 78 20155 Milano Milano Italy","regs-gandi@softwareworkers.it","True","True","SOFTWARE WORKERS srl a socio unico","Andrea Rossi","4","Via Marco Ulpio Traiano 72 20149 Milano  Italy","regs@softwareworkers.it","1","False","softwareworkers.it"
"softwareworkers.net","net","","2018-05-18 13:51","2024-05-18 13:51","True","False","2023-04-17 13:18","True","livedns","False","False","True","False","False","False","False","sw","","Software Workers","ns-88-a.gandi.net","ns-250-b.gandi.net","ns-80-c.gandi.net","","","","","","","","SOFTWARE WORKERS srl a socio unico","Andrea Rossi","1","Via Marco Ulpio Traiano 72 20149 Milano Milano Italy","regs@softwareworkers.it","1","True","SOFTWARE WORKERS srl a socio unico","Andrea Rossi","1","Via Marco Ulpio Traiano 72 20149 Milano Milano Italy","regs@softwareworkers.it","1","True","SOFTWARE WORKERS srl a socio unico","Andrea Rossi","1","Via Marco Ulpio Traiano 72 20149 Milano Milano Italy","regs@softwareworkers.it","1","True","SOFTWARE WORKERS srl a socio unico","Andrea Rossi","1","Via Marco Ulpio Traiano 72 20149 Milano Milano Italy","regs@softwareworkers.it","1","True","","","","","","","","softwareworkers.net"
"softwareworkers.org","org","","2018-05-18 13:51","2024-05-18 13:51","True","False","2023-04-17 13:18","True","livedns","False","False","True","False","False","False","False","sw","","Software Workers","ns-190-a.gandi.net","ns-24-b.gandi.net","ns-197-c.gandi.net","","","","","","","","SOFTWARE WORKERS srl a socio unico","Andrea Rossi","1","Via Marco Ulpio Traiano 72 20149 Milano Milano Italy","regs@softwareworkers.it","1","True","SOFTWARE WORKERS srl a socio unico","Andrea Rossi","1","Via Marco Ulpio Traiano 72 20149 Milano Milano Italy","regs@softwareworkers.it","1","True","SOFTWARE WORKERS srl a socio unico","Andrea Rossi","1","Via Marco Ulpio Traiano 72 20149 Milano Milano Italy","regs@softwareworkers.it","1","True","SOFTWARE WORKERS srl a socio unico","Andrea Rossi","1","Via Marco Ulpio Traiano 72 20149 Milano Milano Italy","regs@softwareworkers.it","1","True","","","","","","","","softwareworkers.org"
"sovranitadigitale.org","org","","2020-02-05 15:01","2024-02-05 15:01","False","False","2024-01-16 15:05","True","livedns","False","False","True","False","False","False","False","a9i","","Software Workers","ns-141-a.gandi.net","ns-94-b.gandi.net","ns-62-c.gandi.net","","","","","","","","Andrea Rossi","","0","Via Traiano 72 20149 Milano Milano Italy","p@a9i.it","1","True","Andrea Rossi","","0","Via Traiano 72 20149 Milano Milano Italy","p@a9i.it","1","True","Andrea Rossi","","0","Via Traiano 72 20149 Milano Milano Italy","p@a9i.it","1","True","Andrea Rossi","","0","Via Traiano 72 20149 Milano Milano Italy","p@a9i.it","1","True","SOFTWARE WORKERS srl a socio unico","Andrea Rossi","4","Via Marco Ulpio Traiano 72 20149 Milano  Italy","regs@softwareworkers.it","1","False","sovranitadigitale.org"
"swws.it","it","","2022-06-07 11:47","2024-06-07 21:59","True","False","2023-11-07 16:34","n/a","livedns","False","False","True","False","False","False","False","sw","","Software Workers","ns-152-a.gandi.net","ns-40-b.gandi.net","ns-100-c.gandi.net","","","","","","","","SOFTWARE WORKERS srl a socio unico","Andrea Rossi","1","Via Traiano 72 20149 Milano Milano Italy","regs@softwareworkers.it","1","True","SOFTWARE WORKERS srl a socio unico","Andrea Rossi","1","Via Traiano 72 20149 Milano Milano Italy","regs@softwareworkers.it","1","True","SOFTWARE WORKERS srl a socio unico","Andrea Rossi","1","Via Traiano 72 20149 Milano Milano Italy","regs@softwareworkers.it","1","True","SOFTWARE WORKERS srl a socio unico","Andrea Rossi","1","Via Traiano 72 20149 Milano Milano Italy","regs@softwareworkers.it","1","True","SOFTWARE WORKERS srl a socio unico","Andrea Rossi","4","Via Marco Ulpio Traiano 72 20149 Milano  Italy","regs@softwareworkers.it","1","False","swws.it"
"teknosynergy.com","com","","2013-07-09 09:40","2024-07-09 09:40","True","False","2023-06-08 08:48","True","livedns","False","True","True","False","False","False","False","customers","","Teknosynergy.com","ns-240-a.gandi.net","ns-245-b.gandi.net","ns-214-c.gandi.net","","","","","","","","Teknosynergy di Zanesi Achille","Achille Zanesi","1","Via VIII Marzo, 2 23893 Cassago Brianza Lecco Italy","aklezan@gmail.com","True","True","Teknosynergy di Zanesi Achille","Achille Zanesi","1","Via VIII Marzo, 2 23893 Cassago Brianza Lecco Italy","aklezan@gmail.com","True","True","Teknosynergy di Zanesi Achille","Achille Zanesi","1","Via VIII Marzo, 2 23893 Cassago Brianza Lecco Italy","aklezan@gmail.com","True","True","Teknosynergy di Zanesi Achille","Achille Zanesi","1","Via VIII Marzo, 2 23893 Cassago Brianza Lecco Italy","aklezan@gmail.com","True","True","","","","","","","","teknosynergy.com"
"the-cow.eu","eu","","2022-03-19 09:45","2025-03-19 22:59","True","False","2023-12-16 16:19","n/a","other","False","True","True","False","False","False","True","customers","","a9i","ns1045.ui-dns.com","ns1045.ui-dns.biz","ns1045.ui-dns.org","ns1045.ui-dns.de","","","","","","","Andrea Rossi","","0","Via Marco Ulpio Traiano 72 20149 Milano Milano Italy","regs@a9i.it","True","True","Andrea Rossi","","0","Via Marco Ulpio Traiano 72 20149 Milano Milano Italy","regs@a9i.it","True","True","Software Workers srl","Andrea Rossi","1","Via Marco Ulpio Traiano 72 20149 Milano Milano Italy","domain.tech@softwareworkers.it","1","True","Andrea Rossi","","0","Via Marco Ulpio Traiano 72 20149 Milano Milano Italy","regs@a9i.it","True","True","","","","","","","","the-cow.eu"
"xelera.eu","eu","","2006-04-07 18:07","2024-03-31 21:59","True","False","2024-01-01 22:08","n/a","livedns","False","False","False","False","False","False","True","xelera","","Xelera.eu HQ","ns-238-a.gandi.net","ns-240-b.gandi.net","ns-8-c.gandi.net","","","","","","","","Semantica di Giovanni Biscuolo","Giovanni Biscuolo","4","Via Tiziano Vecellio, 18 20821 Meda Milano Italy","admin+domains@xelera.eu","1","True","Semantica di Giovanni Biscuolo","Giovanni Biscuolo","4","Via Tiziano Vecellio, 18 20821 Meda Milano Italy","admin+domains@xelera.eu","1","True","Semantica di Giovanni Biscuolo","Giovanni Biscuolo","4","Via Tiziano Vecellio, 18 20821 Meda Milano Italy","admin+domains@xelera.eu","1","True","Semantica di Giovanni Biscuolo","Giovanni Biscuolo","4","Via Tiziano Vecellio, 18 20821 Meda Milano Italy","admin+domains@xelera.eu","1","True","Semantica di Giovanni Biscuolo","Giovanni Biscuolo","4","Via Tiziano Vecellio, 18 20821 Meda Milano Italy","admin+domains@xelera.eu","1","True","xelera.eu"
"xelera.it","it","","2001-04-03 22:00","2024-04-13 21:59","True","False","2024-01-15 22:07","n/a","livedns","False","False","False","False","False","False","True","xelera","","Semantica di Biscuolo Giovanni","ns-251-a.gandi.net","ns-144-b.gandi.net","ns-155-c.gandi.net","","","","","","","","Semantica di Biscuolo Giovanni","Semantica di Biscuolo Giovanni","1","via G. D'Annunzio, 33 20053 Muggio'  Italy","info@heimat.it","1","True","Semantica di Giovanni Biscuolo","Giovanni Biscuolo","4","Via Tiziano Vecellio, 18 20821 Meda Milano Italy","admin+domains@xelera.eu","1","True","Semantica di Giovanni Biscuolo","Giovanni Biscuolo","4","Via Tiziano Vecellio, 18 20821 Meda Milano Italy","admin+domains@xelera.eu","1","True","Semantica di Giovanni Biscuolo","Giovanni Biscuolo","4","Via Tiziano Vecellio, 18 20821 Meda Milano Italy","admin+domains@xelera.eu","1","True","Semantica di Giovanni Biscuolo","Giovanni Biscuolo","4","Via Tiziano Vecellio, 18 20821 Meda Milano Italy","admin+domains@xelera.eu","1","True","xelera.it"
