;Domain;Type;Target 
A;amolamiaterra.it;to a server (IPv4 - A);192.30.252.153
CNAME;autoconfig.amolamiaterra.it;to a domain (CNAME);mailconfig.ovh.net
CNAME;autodiscover.amolamiaterra.it;to a domain (CNAME);mailconfig.ovh.net
CNAME;ftp.amolamiaterra.it;to a domain (CNAME);amolamiaterra.it
CNAME;imap.amolamiaterra.it;to a domain (CNAME);ssl0.ovh.net
CNAME;mail.amolamiaterra.it;to a domain (CNAME);ssl0.ovh.net
CNAME;pop3.amolamiaterra.it;to a domain (CNAME);ssl0.ovh.net
CNAME;smtp.amolamiaterra.it;to a domain (CNAME);ssl0.ovh.net
CNAME;www.amolamiaterra.it;to a domain (CNAME);amolamiaterra.it