<?xml version="1.0" encoding="UTF-8" standalone="no"?>
<!-- Created with Inkscape (http://www.inkscape.org/) -->

<svg
   width="200"
   height="200"
   viewBox="0 0 52.916664 52.916664"
   version="1.1"
   id="svg5"
   xml:space="preserve"
   inkscape:version="1.2.1 (9c6d41e410, 2022-07-14)"
   sodipodi:docname="person-light (copia).svg"
   inkscape:export-filename="org-layout-mockup.png"
   inkscape:export-xdpi="96"
   inkscape:export-ydpi="96"
   xmlns:inkscape="http://www.inkscape.org/namespaces/inkscape"
   xmlns:sodipodi="http://sodipodi.sourceforge.net/DTD/sodipodi-0.dtd"
   xmlns="http://www.w3.org/2000/svg"
   xmlns:svg="http://www.w3.org/2000/svg"><sodipodi:namedview
     id="namedview7"
     pagecolor="#505050"
     bordercolor="#000000"
     borderopacity="1"
     inkscape:showpageshadow="0"
     inkscape:pageopacity="0"
     inkscape:pagecheckerboard="true"
     inkscape:deskcolor="#505050"
     inkscape:document-units="px"
     showgrid="false"
     inkscape:zoom="1"
     inkscape:cx="-214"
     inkscape:cy="3"
     inkscape:window-width="1920"
     inkscape:window-height="1011"
     inkscape:window-x="0"
     inkscape:window-y="32"
     inkscape:window-maximized="1"
     inkscape:current-layer="svg5"
     showborder="true" /><defs
     id="defs2"><style
       id="style6993">
      .cls-1 {
        fill: #000333;
      }
    </style></defs><g
     inkscape:groupmode="layer"
     id="layer2"
     inkscape:label="background"
     style="display:inline"
     transform="translate(-256.59154,-43.154343)" /><g
     inkscape:label="sheet"
     inkscape:groupmode="layer"
     id="layer1"
     style="display:inline"
     transform="translate(-256.59154,-43.154343)" /><rect
     style="fill:#000000;stroke-width:0.264583;stroke-linecap:round"
     id="rect509"
     width="2.6458333"
     height="11.906249"
     x="75.273956"
     y="17.982975" /><rect
     style="fill:#000000;stroke-width:0.264583;stroke-linecap:round"
     id="rect511"
     width="2.6458333"
     height="11.906249"
     x="91.537079"
     y="17.982975" /><rect
     style="fill:#000000;stroke-width:0.264582;stroke-linecap:round"
     id="rect539"
     width="19.843748"
     height="2.6458333"
     x="74.744789"
     y="35.445477" /><rect
     style="fill:#000000;stroke-width:0.264582;stroke-linecap:round"
     id="rect634"
     width="2.6458333"
     height="2.645833"
     x="72.098961"
     y="32.799644" /><rect
     style="fill:#000000;stroke-width:0.264582;stroke-linecap:round"
     id="rect648"
     width="2.6458333"
     height="2.6458333"
     x="94.588509"
     y="32.799644" /><g
     id="g522"
     transform="translate(0,-58.208327)"
     style="fill:#000000"><path
       d="M 32.67873,29.873894 H 29.285786 V 8.3400076 h 3.392944 z m -9.047852,0 H 20.237933 V 8.3400076 h 3.392945 z"
       id="path479"
       style="font-size:67.5604px;line-height:1.25;font-family:'Work Sans';-inkscape-font-specification:'Work Sans';letter-spacing:0px;fill:#000000;stroke-width:0.264582" /><path
       d="m 9.312653,34.262106 v 6.921607 H 43.604012 V 34.262106 H 46.77076 V 44.576657 H 6.145905 V 34.262106 Z"
       id="path481"
       style="font-size:67.5604px;line-height:1.25;font-family:'Work Sans';-inkscape-font-specification:'Work Sans';letter-spacing:0px;fill:#000000;stroke-width:0.264582" /></g><g
     id="g599"
     transform="translate(0,2.6458332)"
     style="fill:#000000"><path
       d="m 36.364331,19.371741 q 0,1.1049 -0.6858,1.7907 -0.6858,0.6858 -1.7907,0.6858 -1.1049,0 -1.7907,-0.6858 -0.6858,-0.6858 -0.6858,-1.7907 0,-1.1049 0.6858,-1.7907 0.6858,-0.685799 1.7907,-0.685799 1.1049,0 1.7907,0.685799 0.6858,0.6858 0.6858,1.7907 z m -14.859,0 q 0,1.1049 -0.6858,1.7907 -0.6858,0.6858 -1.7907,0.6858 -1.104899,0 -1.790699,-0.6858 -0.6858,-0.6858 -0.6858,-1.7907 0,-1.1049 0.6858,-1.7907 0.6858,-0.685799 1.790699,-0.685799 1.1049,0 1.7907,0.685799 0.6858,0.6858 0.6858,1.7907 z"
       id="path590"
       style="font-size:38.1px;line-height:1.25;font-family:'Work Sans';-inkscape-font-specification:'Work Sans';letter-spacing:0px;fill:#000000;stroke-width:0.264583" /><path
       d="m 8.5513329,27.868023 1.7526001,-1.7526 q 3.4671,3.7719 7.429499,5.2578 3.9624,1.524 8.7249,1.524 4.7625,0 8.7249,-1.524 3.9624,-1.4859 7.429499,-5.2578 l 1.7526,1.7526 q -7.048499,8.153399 -17.906999,8.153399 -10.858499,0 -17.9069991,-8.153399 z"
       id="path592"
       style="font-size:38.1px;line-height:1.25;font-family:'Work Sans';-inkscape-font-specification:'Work Sans';letter-spacing:0px;fill:#000000;stroke-width:0.264583" /></g><g
     id="g686"
     transform="translate(-63.499993)"
     style="fill:#000000"><path
       d="m 36.364331,23.609308 q 0,1.1049 -0.6858,1.7907 -0.6858,0.6858 -1.7907,0.6858 -1.1049,0 -1.7907,-0.6858 -0.6858,-0.6858 -0.6858,-1.7907 0,-1.1049 0.6858,-1.7907 0.6858,-0.6858 1.7907,-0.6858 1.1049,0 1.7907,0.6858 0.6858,0.6858 0.6858,1.7907 z m -14.859,0 q 0,1.1049 -0.6858,1.7907 -0.6858,0.6858 -1.7907,0.6858 -1.104899,0 -1.790699,-0.6858 -0.6858,-0.6858 -0.6858,-1.7907 0,-1.1049 0.6858,-1.7907 0.6858,-0.6858 1.790699,-0.6858 1.1049,0 1.7907,0.6858 0.6858,0.6858 0.6858,1.7907 z"
       id="path677"
       style="font-size:38.1px;line-height:1.25;font-family:'Work Sans';-inkscape-font-specification:'Work Sans';letter-spacing:0px;fill:#000000;stroke-width:0.264583" /><path
       d="m 12.018433,30.50539 v 5.8293 h 28.879799 v -5.8293 h 2.666999 v 8.686799 H 9.3514329 V 30.50539 Z"
       id="path679"
       style="font-size:38.1px;line-height:1.25;font-family:'Work Sans';-inkscape-font-specification:'Work Sans';letter-spacing:0px;fill:#000000;stroke-width:0.264583" /></g></svg>
