<?xml version="1.0" encoding="UTF-8" standalone="no"?>
<!-- Created with Inkscape (http://www.inkscape.org/) -->

<svg
   width="15.000128"
   height="14.999954"
   viewBox="0 0 3.9687836 3.9687378"
   version="1.1"
   id="svg5"
   xml:space="preserve"
   inkscape:version="1.2.1 (9c6d41e410, 2022-07-14)"
   sodipodi:docname="toc.svg"
   inkscape:export-filename="org-layout-mockup.png"
   inkscape:export-xdpi="96"
   inkscape:export-ydpi="96"
   xmlns:inkscape="http://www.inkscape.org/namespaces/inkscape"
   xmlns:sodipodi="http://sodipodi.sourceforge.net/DTD/sodipodi-0.dtd"
   xmlns="http://www.w3.org/2000/svg"
   xmlns:svg="http://www.w3.org/2000/svg"><sodipodi:namedview
     id="namedview7"
     pagecolor="#505050"
     bordercolor="#000000"
     borderopacity="1"
     inkscape:showpageshadow="0"
     inkscape:pageopacity="0"
     inkscape:pagecheckerboard="true"
     inkscape:deskcolor="#505050"
     inkscape:document-units="px"
     showgrid="false"
     inkscape:zoom="5.0911688"
     inkscape:cx="-15.713484"
     inkscape:cy="-4.7140452"
     inkscape:window-width="1920"
     inkscape:window-height="1011"
     inkscape:window-x="0"
     inkscape:window-y="32"
     inkscape:window-maximized="1"
     inkscape:current-layer="svg5"
     showborder="false" /><defs
     id="defs2"><rect
       x="2359.5674"
       y="207.64577"
       width="296.97601"
       height="522.6485"
       id="rect20591" /><rect
       x="269.53238"
       y="353.25217"
       width="736.89307"
       height="133.50214"
       id="rect12849" /><style
       id="style6993">
      .cls-1 {
        fill: #000333;
      }
    </style><rect
       x="269.53238"
       y="353.25217"
       width="736.89307"
       height="133.50214"
       id="rect14735" /><rect
       x="269.53238"
       y="353.25217"
       width="736.89307"
       height="133.50214"
       id="rect18625" /><rect
       x="269.53238"
       y="353.25217"
       width="736.89307"
       height="133.50214"
       id="rect19306" /><rect
       x="269.53238"
       y="353.25217"
       width="736.89307"
       height="133.50214"
       id="rect19308" /><rect
       x="269.53238"
       y="353.25217"
       width="736.89307"
       height="133.50214"
       id="rect19310" /><rect
       x="2359.5674"
       y="207.64577"
       width="296.97601"
       height="522.6485"
       id="rect23168" /><rect
       x="269.53238"
       y="353.25217"
       width="736.89307"
       height="133.50214"
       id="rect43474" /><rect
       x="269.53238"
       y="353.25217"
       width="736.89307"
       height="133.50214"
       id="rect43476" /><rect
       x="269.53238"
       y="353.25217"
       width="736.89307"
       height="133.50214"
       id="rect43478" /><rect
       x="269.53238"
       y="353.25217"
       width="736.89307"
       height="133.50214"
       id="rect43480" /><rect
       x="269.53238"
       y="353.25217"
       width="736.89307"
       height="133.50214"
       id="rect43482" /><rect
       x="269.53238"
       y="353.25217"
       width="736.89307"
       height="133.50214"
       id="rect43484" /><rect
       x="2359.5674"
       y="207.64577"
       width="296.97601"
       height="522.6485"
       id="rect43486" /><rect
       x="2359.5674"
       y="207.64577"
       width="296.97601"
       height="522.6485"
       id="rect43488" /><rect
       x="269.53238"
       y="353.25217"
       width="736.89307"
       height="133.50214"
       id="rect29531" /><rect
       x="269.53238"
       y="353.25217"
       width="736.89307"
       height="133.50214"
       id="rect29533" /><rect
       x="269.53238"
       y="353.25217"
       width="736.89307"
       height="133.50214"
       id="rect29535" /><rect
       x="2359.5674"
       y="207.64577"
       width="296.97601"
       height="522.6485"
       id="rect29537" /><rect
       x="269.53238"
       y="353.25217"
       width="736.89307"
       height="133.50214"
       id="rect29539" /><rect
       x="269.53238"
       y="353.25217"
       width="736.89307"
       height="133.50214"
       id="rect29541" /><rect
       x="269.53238"
       y="353.25217"
       width="736.89307"
       height="133.50214"
       id="rect29543" /><rect
       x="2359.5674"
       y="207.64577"
       width="296.97601"
       height="522.6485"
       id="rect29545" /></defs><g
     inkscape:groupmode="layer"
     id="layer2"
     inkscape:label="background"
     style="display:inline"
     transform="translate(-256.13596,-42.558994)" /><g
     inkscape:label="sheet"
     inkscape:groupmode="layer"
     id="layer1"
     style="display:inline"
     transform="translate(-256.13596,-42.558994)" /><g
     id="g818"
     transform="translate(-256.13596,-323.01733)"><rect
       style="opacity:1;fill:#000000;fill-opacity:1;stroke:none;stroke-width:0.264582;stroke-linecap:round;stroke-dasharray:none;stroke-opacity:1"
       id="rect29319"
       width="0.79374999"
       height="0.79374999"
       x="256.13605"
       y="323.01733" /><rect
       style="opacity:1;fill:#000000;fill-opacity:1;stroke:none;stroke-width:0.264582;stroke-linecap:round;stroke-dasharray:none;stroke-opacity:1"
       id="rect29321"
       width="2.3812592"
       height="0.79374999"
       x="257.72348"
       y="323.01733" /><rect
       style="opacity:1;fill:#000000;fill-opacity:1;stroke:none;stroke-width:0.264582;stroke-linecap:round;stroke-dasharray:none;stroke-opacity:1"
       id="rect29323"
       width="0.79374999"
       height="0.79374999"
       x="256.13596"
       y="324.60483" /><rect
       style="opacity:1;fill:#000000;fill-opacity:1;stroke:none;stroke-width:0.264582;stroke-linecap:round;stroke-dasharray:none;stroke-opacity:1"
       id="rect29325"
       width="2.3812592"
       height="0.79374999"
       x="257.72348"
       y="324.60483" /><rect
       style="opacity:1;fill:#000000;fill-opacity:1;stroke:none;stroke-width:0.264582;stroke-linecap:round;stroke-dasharray:none;stroke-opacity:1"
       id="rect29327"
       width="0.79374999"
       height="0.79374999"
       x="256.13596"
       y="326.19232" /><rect
       style="opacity:1;fill:#000000;fill-opacity:1;stroke:none;stroke-width:0.264582;stroke-linecap:round;stroke-dasharray:none;stroke-opacity:1"
       id="rect29329"
       width="2.3812592"
       height="0.79374999"
       x="257.72348"
       y="326.19232" /></g></svg>
